<?xml version="1.0" encoding="UTF-8"?>
<!DOCTYPE svg PUBLIC "-//W3C//DTD SVG 1.1//EN" "http://www.w3.org/Graphics/SVG/1.1/DTD/svg11.dtd">
<!-- Creator: CorelDRAW 2019 (64-Bit) -->
<svg xmlns="http://www.w3.org/2000/svg" xml:space="preserve" width="17.7689mm" height="17.7689mm" version="1.1" style="shape-rendering:geometricPrecision; text-rendering:geometricPrecision; image-rendering:optimizeQuality; fill-rule:evenodd; clip-rule:evenodd"
viewBox="0 0 1812.87 1812.87"
 xmlns:xlink="http://www.w3.org/1999/xlink"
 xmlns:xodm="http://www.corel.com/coreldraw/odm/2003">
 <defs>
  <style type="text/css">
   <![CDATA[
    .fil0 {fill:#F0C838}
    .fil4 {fill:#FB2A3A}
    .fil1 {fill:#FFF761}
    .fil3 {fill:white}
    .fil2 {fill:#310034}
   ]]>
  </style>
 </defs>
 <g id="Слой_x0020_1">
  <metadata id="CorelCorpID_0Corel-Layer"/>
  <g id="_2301935009280">
   <circle class="fil0" cx="906.44" cy="906.44" r="906.44"/>
   <g>
    <g>
     <rect class="fil1" x="355.1" y="520.34" width="801.13" height="503.04" rx="42.77" ry="42.36"/>
     <rect class="fil2" x="355.1" y="592.27" width="801.13" height="108.45"/>
     <rect class="fil3" x="410.6" y="773.02" width="690.12" height="108.45"/>
    </g>
    <g>
     <rect class="fil2" x="656.64" y="789.5" width="801.13" height="503.04" rx="42.77" ry="42.36"/>
     <g>
      <circle class="fil4" transform="matrix(0.0209829 -0.0209829 0.0209829 0.0209829 798.074 909.445)" r="2159.54"/>
      <circle class="fil1" transform="matrix(0.0209829 -0.0209829 0.0209829 0.0209829 888.7 909.445)" r="2159.54"/>
      <path class="fil0" d="M843.39 864.13c25.02,25.03 25.02,65.6 0,90.63 -25.03,-25.03 -25.03,-65.6 0,-90.63z"/>
     </g>
     <g>
      <rect class="fil3" x="750.6" y="1101.41" width="130.14" height="59.44"/>
      <rect class="fil3" x="911.62" y="1101.41" width="130.14" height="59.44"/>
      <rect class="fil3" x="1072.65" y="1101.41" width="130.14" height="59.44"/>
      <rect class="fil3" x="1233.68" y="1101.41" width="130.14" height="59.44"/>
     </g>
     <g>
      <rect class="fil3" x="748.11" y="1209.98" width="186.66" height="37.11"/>
      <rect class="fil3" x="969.93" y="1209.98" width="227.74" height="37.11"/>
     </g>
    </g>
   </g>
  </g>
 </g>
</svg>
