<?xml version="1.0" encoding="UTF-8"?>
<!DOCTYPE svg PUBLIC "-//W3C//DTD SVG 1.1//EN" "http://www.w3.org/Graphics/SVG/1.1/DTD/svg11.dtd">
<!-- Creator: CorelDRAW 2019 (64-Bit) -->
<svg xmlns="http://www.w3.org/2000/svg" xml:space="preserve" width="41.628mm" height="41.628mm" version="1.1" style="shape-rendering:geometricPrecision; text-rendering:geometricPrecision; image-rendering:optimizeQuality; fill-rule:evenodd; clip-rule:evenodd"
viewBox="0 0 275.01 275.01"
 xmlns:xlink="http://www.w3.org/1999/xlink"
 xmlns:xodm="http://www.corel.com/coreldraw/odm/2003">
 <defs>
  <style type="text/css">
   <![CDATA[
    .fil3 {fill:#FEFEFE}
    .fil2 {fill:#53AF3A}
    .fil0 {fill:#F0C838}
    .fil1 {fill:white}
   ]]>
  </style>
 </defs>
 <g id="Слой_x0020_1">
  <metadata id="CorelCorpID_0Corel-Layer"/>
  <g id="_1850548511888">
   <circle class="fil0" cx="137.5" cy="137.5" r="137.5"/>
   <g>
    <g>
     <path class="fil1" d="M27.96 84.81l110.58 0c-0.02,0.12 -0.03,0.24 -0.03,0.37 0.03,0.47 0.27,0.87 0.68,1.11l3.07 1.81c0.46,0.27 0.71,0.75 0.68,1.28 -0.04,0.54 -0.35,0.97 -0.85,1.18l-8.03 3.31c-0.56,0.23 -0.89,0.77 -0.85,1.37 0.04,0.6 0.45,1.09 1.04,1.24l0.94 0.23c0.44,0.11 0.77,0.39 0.94,0.81 0.17,0.42 0.14,0.85 -0.1,1.24l-2.79 4.61c-0.3,0.5 -0.27,1.1 0.09,1.56l5.84 7.53c0.25,0.32 0.34,0.69 0.27,1.09 -0.07,0.4 -0.29,0.71 -0.63,0.93l-1.63 1.01c-0.39,0.24 -0.62,0.63 -0.65,1.09 -0.03,0.46 0.16,0.87 0.52,1.16l3.37 2.67c0.33,0.26 0.5,0.61 0.52,1.03 0.01,0.42 -0.14,0.78 -0.44,1.06l-4.17 3.83c-0.52,0.48 -0.6,1.27 -0.17,1.83l7.01 9.39c0.38,0.51 0.37,1.2 -0.04,1.69l-4.19 5.15c-0.48,0.58 -0.39,1.45 0.19,1.93l3.75 3.1c0.34,0.28 0.51,0.66 0.5,1.09 -0.01,0.44 -0.2,0.81 -0.55,1.07l-9.08 6.81c-0.35,0.26 -0.55,0.64 -0.55,1.08 -0.01,0.44 0.18,0.82 0.52,1.1l7.04 5.55c0.36,0.29 0.55,0.7 0.52,1.16 -0.02,0.46 -0.25,0.85 -0.65,1.09l-6.29 3.91c-0.39,0.24 -0.61,0.62 -0.64,1.07 -0.03,0.45 0.14,0.86 0.49,1.15l4.54 3.81c0.39,0.33 0.56,0.8 0.47,1.3 -0.09,0.5 -0.42,0.89 -0.91,1.05l-8.7 2.99c-0.54,0.19 -0.9,0.66 -0.93,1.23 -0.03,0.57 0.27,1.08 0.8,1.32l6.31 2.92c0.11,0.05 0.2,0.11 0.29,0.18l1.13 0.93 -109.24 0 0 -105.39z"/>
     <g>
      <g>
       <g>
        <path class="fil2" d="M27.96 190.2l29.27 0c0,-16.17 -13.11,-29.27 -29.27,-29.27l0 29.27z"/>
        <path class="fil2" d="M27.96 84.81l29.27 0c0,16.17 -13.11,29.27 -29.27,29.27l0 -29.27z"/>
       </g>
       <g>
        <path class="fil2" d="M137.2 190.2l-109.24 0 0 -7.32 103.78 0 -2.14 0.74c-0.54,0.19 -0.9,0.66 -0.93,1.23 -0.03,0.57 0.27,1.08 0.8,1.32l6.31 2.92c0.11,0.05 0.2,0.11 0.29,0.18l1.13 0.93z"/>
        <polygon class="fil2" points="27.96,84.81 35.28,84.81 35.28,190.2 27.96,190.2 "/>
        <path class="fil2" d="M138.26 92.13l-110.3 0 0 -7.32 110.58 0c-0.02,0.12 -0.03,0.24 -0.03,0.37 0.03,0.47 0.27,0.87 0.68,1.11l3.07 1.81c0.46,0.27 0.71,0.75 0.68,1.28 -0.04,0.54 -0.35,0.97 -0.85,1.18l-3.83 1.58z"/>
       </g>
      </g>
      <path class="fil2" d="M133.36 165.65c1.87,0 3.67,-0.41 5.37,-1.17l-5 -3.94c-0.35,-0.27 -0.53,-0.66 -0.52,-1.1 0,-0.44 0.2,-0.82 0.55,-1.08l9.08 -6.81c0.35,-0.26 0.54,-0.63 0.55,-1.07 0.01,-0.44 -0.16,-0.81 -0.5,-1.09l-3.75 -3.1c-0.58,-0.48 -0.67,-1.34 -0.19,-1.93l4.19 -5.15c0.4,-0.49 0.42,-1.18 0.04,-1.69l-7.01 -9.39c-0.42,-0.57 -0.35,-1.36 0.17,-1.83l4.17 -3.83c0.31,-0.28 0.46,-0.65 0.44,-1.06 -0.02,-0.42 -0.19,-0.77 -0.52,-1.03l-3.37 -2.67c-0.36,-0.29 -0.55,-0.7 -0.52,-1.16 0.03,-0.46 0.26,-0.84 0.65,-1.09l1.63 -1.01c0.34,-0.21 0.56,-0.53 0.63,-0.93 0.07,-0.4 -0.02,-0.77 -0.27,-1.09l-1.92 -2.47c-1.25,-0.4 -2.55,-0.61 -3.89,-0.61 -10.36,0 -18.76,12.6 -18.76,28.15 0,15.54 8.4,28.15 18.76,28.15z"/>
     </g>
     <path class="fil3" d="M136.67 141.98c1.98,0 3.76,-0.46 5.25,-1.29l1.2 -1.47c0.4,-0.49 0.42,-1.18 0.04,-1.69l-2.6 -3.48c-0.72,1.92 -2.45,3.09 -4.96,3.09l-5.42 0 0 -10.49 5.51 0 0.36 0.01c0.07,-0.13 0.16,-0.25 0.27,-0.35l4.17 -3.83 0.01 -0.01c-1.16,-0.41 -2.45,-0.63 -3.83,-0.63l-11.43 0c-0.46,0 -0.84,0.38 -0.84,0.84l0 14.46 -3.64 0c-0.46,0 -0.84,0.38 -0.84,0.84l0 3.17c0,0.46 0.38,0.84 0.84,0.84l3.64 0 0 2.24 -3.64 0c-0.46,0 -0.84,0.38 -0.84,0.84l0 2.8c0,0.46 0.38,0.84 0.84,0.84l3.64 0 0 3.64c0,0.46 0.38,0.84 0.84,0.84l4.1 0c0.46,0 0.84,-0.38 0.84,-0.84l0 -3.64 11.3 0c0.16,0 0.3,-0.04 0.43,-0.12l-2.77 -2.29c-0.58,-0.48 -0.67,-1.34 -0.19,-1.93l0.12 -0.14 -8.87 0 0 -2.24 6.49 0z"/>
    </g>
    <g>
     <path class="fil1" d="M146.84 84.81l100.21 0 0 105.39 -101.55 0 -1.13 -0.93c-0.09,-0.08 -0.18,-0.13 -0.29,-0.18l-6.31 -2.92c-0.52,-0.24 -0.83,-0.75 -0.8,-1.32 0.03,-0.57 0.39,-1.04 0.93,-1.23l8.7 -2.99c0.48,-0.17 0.81,-0.55 0.91,-1.05 0.09,-0.5 -0.08,-0.98 -0.47,-1.3l-4.54 -3.81c-0.35,-0.29 -0.52,-0.7 -0.49,-1.15 0.03,-0.46 0.26,-0.83 0.64,-1.07l6.29 -3.91c0.39,-0.24 0.62,-0.63 0.65,-1.09 0.03,-0.46 -0.16,-0.87 -0.52,-1.16l-7.04 -5.55c-0.35,-0.27 -0.53,-0.66 -0.52,-1.1 0,-0.44 0.2,-0.82 0.55,-1.08l9.08 -6.81c0.35,-0.26 0.54,-0.63 0.55,-1.07 0.01,-0.44 -0.16,-0.81 -0.5,-1.09l-3.75 -3.1c-0.58,-0.48 -0.67,-1.34 -0.19,-1.93l4.19 -5.15c0.4,-0.49 0.42,-1.18 0.04,-1.69l-7.01 -9.39c-0.42,-0.57 -0.35,-1.36 0.17,-1.83l4.17 -3.83c0.31,-0.28 0.46,-0.65 0.44,-1.06 -0.02,-0.42 -0.19,-0.77 -0.52,-1.03l-3.37 -2.67c-0.36,-0.29 -0.54,-0.7 -0.52,-1.16 0.03,-0.46 0.26,-0.84 0.65,-1.09l1.63 -1.01c0.34,-0.21 0.56,-0.53 0.63,-0.93 0.07,-0.4 -0.02,-0.77 -0.27,-1.09l-5.84 -7.53c-0.36,-0.46 -0.39,-1.06 -0.09,-1.56l2.79 -4.61c0.23,-0.39 0.27,-0.82 0.1,-1.24 -0.17,-0.42 -0.5,-0.7 -0.94,-0.81l-0.94 -0.23c-0.59,-0.15 -0.99,-0.63 -1.04,-1.24 -0.04,-0.6 0.29,-1.14 0.85,-1.37l8.03 -3.31c0.49,-0.2 0.81,-0.64 0.85,-1.18 0.04,-0.53 -0.21,-1.01 -0.68,-1.28l-3.07 -1.81c-0.41,-0.24 -0.65,-0.63 -0.68,-1.11 -0.01,-0.13 0,-0.25 0.03,-0.37z"/>
     <g>
      <g>
       <g>
        <path class="fil2" d="M247.04 84.81l-29.27 0c0,16.17 13.11,29.27 29.27,29.27l0 -29.27z"/>
        <path class="fil2" d="M247.04 190.2l-29.27 0c0,-16.17 13.11,-29.27 29.27,-29.27l0 29.27z"/>
       </g>
       <g>
        <polygon class="fil2" points="239.73,84.81 247.04,84.81 247.04,190.2 239.73,190.2 "/>
        <path class="fil2" d="M247.04 182.88l0 7.32 -101.55 0 -1.13 -0.93c-0.09,-0.08 -0.18,-0.13 -0.29,-0.18l-6.31 -2.92c-0.52,-0.24 -0.83,-0.75 -0.8,-1.32 0.03,-0.57 0.39,-1.04 0.93,-1.23l2.14 -0.74 107 0z"/>
        <path class="fil2" d="M247.04 84.81l0 7.32 -100.49 0 3.83 -1.58c0.49,-0.2 0.81,-0.64 0.85,-1.18 0.04,-0.53 -0.21,-1.01 -0.68,-1.28l-3.07 -1.81c-0.41,-0.24 -0.65,-0.63 -0.68,-1.11 -0.01,-0.13 0,-0.25 0.03,-0.37l100.21 0z"/>
       </g>
      </g>
      <path class="fil2" d="M147.02 164.48c7.74,-3.47 13.39,-14.23 13.39,-26.97 0,-13.54 -6.38,-24.85 -14.88,-27.54l1.92 2.47c0.25,0.32 0.34,0.69 0.27,1.09 -0.07,0.4 -0.29,0.71 -0.63,0.93l-1.63 1.01c-0.39,0.24 -0.62,0.63 -0.65,1.09 -0.03,0.46 0.16,0.87 0.52,1.16l3.37 2.67c0.33,0.26 0.5,0.61 0.52,1.03 0.01,0.42 -0.14,0.78 -0.44,1.06l-4.17 3.83c-0.52,0.48 -0.6,1.27 -0.17,1.83l7.01 9.39c0.38,0.51 0.37,1.2 -0.04,1.69l-4.19 5.15c-0.48,0.58 -0.39,1.45 0.19,1.93l3.75 3.1c0.34,0.28 0.51,0.66 0.5,1.09 -0.01,0.44 -0.2,0.81 -0.55,1.07l-9.08 6.81c-0.35,0.26 -0.55,0.64 -0.55,1.08 -0,0.44 0.18,0.82 0.52,1.1l5 3.94z"/>
     </g>
     <path class="fil3" d="M150.22 140.69c3.01,-1.67 4.87,-4.86 4.87,-8.85 0,-4.59 -2.45,-8.03 -6.29,-9.38l-0.01 0.01 -4.17 3.83c-0.11,0.1 -0.2,0.22 -0.27,0.35 3.05,0.15 4.88,2.15 4.88,5.19 0,0.81 -0.13,1.55 -0.37,2.2l2.6 3.48c0.38,0.51 0.37,1.2 -0.04,1.69l-1.2 1.47zm-0.02 7.89c0.25,-0.15 0.41,-0.42 0.41,-0.72l0 -2.8c0,-0.46 -0.38,-0.84 -0.84,-0.84l-2.42 0 -0.12 0.14c-0.48,0.58 -0.39,1.45 0.19,1.93l2.78 2.29z"/>
    </g>
   </g>
  </g>
 </g>
</svg>
