<?xml version="1.0" encoding="UTF-8"?>
<!DOCTYPE svg PUBLIC "-//W3C//DTD SVG 1.1//EN" "http://www.w3.org/Graphics/SVG/1.1/DTD/svg11.dtd">
<!-- Creator: CorelDRAW 2019 (64-Bit) -->
<svg xmlns="http://www.w3.org/2000/svg" xml:space="preserve" width="9.9234mm" height="8.3221mm" version="1.1" style="shape-rendering:geometricPrecision; text-rendering:geometricPrecision; image-rendering:optimizeQuality; fill-rule:evenodd; clip-rule:evenodd"
viewBox="0 0 23.24 19.49"
 xmlns:xlink="http://www.w3.org/1999/xlink"
 xmlns:xodm="http://www.corel.com/coreldraw/odm/2003">
 <defs>
  <style type="text/css">
   <![CDATA[
    .fil0 {fill:white}
   ]]>
  </style>
 </defs>
 <g id="Слой_x0020_1">
  <metadata id="CorelCorpID_0Corel-Layer"/>
  <path class="fil0" d="M23.17 1.77l-3.51 16.54c-0.26,1.17 -0.95,1.46 -1.93,0.91l-5.34 -3.94 -2.58 2.48c-0.29,0.29 -0.52,0.52 -1.07,0.52l0.38 -5.44 9.9 -8.95c0.43,-0.38 -0.09,-0.6 -0.67,-0.21l-12.24 7.71 -5.27 -1.65c-1.15,-0.36 -1.17,-1.15 0.24,-1.7l20.61 -7.94c0.95,-0.36 1.79,0.21 1.48,1.67z"/>
 </g>
</svg>
